Pyramides démographiques pour l’analyse épidémiologique
…
1.7.2 Importation des
Données

‣ Importons notre jeu de données dans RStudio et examinons les
variables :

# Importation du jeu de données depuis un fichier CSV
hiv_data <- read_csv(here("data/hiv_zw_linelist_2016.csv"))

# Affichage du dataframe
hiv_data

## # A tibble: 28,000 × 3
##    age_group sex    hiv_status
##    <chr>     <chr>  <chr>     
##  1 20-24     female positive  
##  2 35-39     male   positive  
##  3 15-19     female negative  
##  4 40-44     male   negative  
##  5 45-49     male   positive  
##  6 35-39     female negative  
##  7 50-54     male   positive  
##  8 20-24     female positive  
##  9 05-09     male   negative  
## 10 60-64     male   negative  
## # ℹ 27,990 more rows
…
‣ Pour créer une pyramide démographique de la prévalence du
VIH, nous filtrerons les données pour inclure uniquement les
individus positifs au VIH.

# Filtrer et sauvegarder comme nouveau jeu de données
hiv_cases <- hiv_data %>% 
  filter(hiv_status == "positive")

# Voir le jeu de données
hiv_cases

## # A tibble: 3,923 × 3
##    age_group sex    hiv_status
##    <chr>     <chr>  <chr>     
##  1 20-24     female positive  
##  2 35-39     male   positive  
##  3 45-49     male   positive  
##  4 50-54     male   positive  
##  5 20-24     female positive  
##  6 45-49     female positive  
##  7 25-29     male   positive  
##  8 35-39     female positive  
##  9 60-64     male   positive  
## 10 45-49     male   positive  
## # ℹ 3,913 more rows
‣ Sous-ensemble filtré : 3923 lignes, tous individus
positifs au VIH.

1.7.3 Inspection des
Données

‣ Ensuite, nous examinerons un tableau récapitulatif pour
age_group et sex afin de vérifier que nos
données sont propres.

# Résumer les données dans un tableau par groupe d'âge et sexe
hiv_cases %>% 
  count(age_group, sex)

## # A tibble: 28 × 3
##    age_group sex        n
##    <chr>     <chr>  <int>
##  1 00-04     female     3
##  2 00-04     male       6
##  3 05-09     female     8
##  4 05-09     male      10
##  5 10-14     female    42
##  6 10-14     male      23
##  7 15-19     female    51
##  8 15-19     male      46
##  9 20-24     female   107
## 10 20-24     male      44
## # ℹ 18 more rows
…
N’importe laquelle des précédentes

1.12 Pratique

Question de Pratique de Codage

Commencez par charger le jeu de données préparé avec la population du
Zimbabwe, agrégée par âge et sexe :

zw_2016 <- readRDS(here::here("data/population_zw_2016.rds"))

zw_2016

## # A tibble: 28 × 3
## # Groups:   age_group [14]
##    age_group sex    total_count
##    <fct>     <fct>        <int>
##  1 0-4       Female     1091129
##  2 0-4       Male      -1114324
##  3 10-14     Female      815362
##  4 10-14     Male       -803657
##  5 15-19     Female      803754
##  6 15-19     Male       -792474
##  7 20-24     Female      690940
##  8 20-24     Male       -632342
##  9 25-29     Female      638192
## 10 25-29     Male       -535444
## # ℹ 18 more rows
…
