Création de cartes choroplèthes avec {ggplot2}
…
‣ Utilisez pivot_longer() pour consolider les colonnes
annuelles.

malaria3_longer <- malaria3 %>%
  pivot_longer(cols = `cases_2000`:`cases_2021`, names_to = "year", values_to = "cases")

malaria3_longer

## Simple feature collection with 185 features and 4 fields
## Geometry type: MULTIPOLYGON
## Dimension:     XY
## Bounding box:  xmin: 2.668431 ymin: 4.270418 xmax: 14.67642 ymax: 13.89201
## Geodetic CRS:  WGS 84
## # A tibble: 185 × 5
##    state_name                                        geometry risk  year   cases
##    <chr>                                   <MULTIPOLYGON [°]> <chr> <chr>  <dbl>
##  1 Abia       (((7.508013 6.00969, 7.519432 6.001882, 7.5283… low   case… 2.43e6
##  2 Abia       (((7.508013 6.00969, 7.519432 6.001882, 7.5283… low   case… 2.85e6
##  3 Abia       (((7.508013 6.00969, 7.519432 6.001882, 7.5283… low   case… 3.17e6
##  4 Abia       (((7.508013 6.00969, 7.519432 6.001882, 7.5283… low   case… 3.62e6
##  5 Abia       (((7.508013 6.00969, 7.519432 6.001882, 7.5283… low   case… 4.24e6
##  6 Adamawa    (((13.72386 10.91173, 13.72138 10.90605, 13.72… low   case… 2.68e6
##  7 Adamawa    (((13.72386 10.91173, 13.72138 10.90605, 13.72… low   case… 3.18e6
##  8 Adamawa    (((13.72386 10.91173, 13.72138 10.90605, 13.72… low   case… 3.56e6
##  9 Adamawa    (((13.72386 10.91173, 13.72138 10.90605, 13.72… low   case… 4.11e6
## 10 Adamawa    (((13.72386 10.91173, 13.72138 10.90605, 13.72… low   case… 4.88e6
## # ℹ 175 more rows
…
