Améliorer les cartes des maladies avec des étiquettes en R
…
malaria <- malaria_cases %>% 
  left_join(nga_adm1, by = c("state_name" = "NAME_1")) %>%
  st_as_sf()

malaria2 <- malaria %>%
  select(state_name, cases_2000, cases_2006, cases_2010, cases_2015, cases_2021, geometry)

malaria2

## Simple feature collection with 37 features and 6 fields
## Geometry type: MULTIPOLYGON
## Dimension:     XY
## Bounding box:  xmin: 2.668431 ymin: 4.270418 xmax: 14.67642 ymax: 13.89201
## Geodetic CRS:  WGS 84
## # A tibble: 37 × 7
##    state_name  cases_2000 cases_2006 cases_2010 cases_2015 cases_2021
##    <chr>            <dbl>      <dbl>      <dbl>      <dbl>      <dbl>
##  1 Abia           2425032    2845380    3165352    3616381    4243233
##  2 Adamawa        2677882    3178950    3564061    4111706    4881061
##  3 Akwa Ibom      3192785    3902051    4460413    5272028    6443191
##  4 Anambra        3539907    4177828    4665766    5356592    6321894
##  5 Bauchi         3807290    4653066    5318894    6286719    7683291
##  6 Bayelsa        1435848    1704515    1911007    2204647    2617167
##  7 Benue          3562357    4253641    4787510    5550036    6627034
##  8 Borno          3412933    4171104    4767966    5635544    6887460
##  9 Cross River    2436993    2892988    3243456    3741838    4441986
## 10 Delta          3404253    4112445    4664648    5460310    6596226
## # ℹ 27 more rows
## # ℹ 1 more variable: geometry <MULTIPOLYGON [°]>
…
